…
Because
[`group_by()`](https://dplyr.tidyverse.org/reference/group_by.html) is
not supported, the data will be attempted to read into memory before the
[`group_by()`](https://dplyr.tidyverse.org/reference/group_by.html)
operation is executed. Once the data is small enough to fit into memory,
this works transparently.

``` r
flights_parquet |>
  count(Month, DayofMonth) |>
  group_by(Month)
#> # A tibble: 182 × 3
#> # Groups:   Month [6]
#>    Month DayofMonth     n
#>    <dbl>      <dbl> <int>
#>  1     1          1 17265
#>  2     1          2 18977
#>  3     1          3 18520
#>  4     1          4 18066
#>  5     1          5 18109
#>  6     1          6 16950
#>  7     1          7 18812
#>  8     1          8 18472
#>  9     1          9 16775
#> 10     1         10 16795
#> # ℹ 172 more rows
```
…
